%YAML 1.1
%TAG !u! tag:unity3d.com,2011:
--- !u!1045 &1
EditorBuildSettings:
  m_ObjectHideFlags: 0
  serializedVersion: 2
  m_Scenes:
  - enabled: 1
    path: Assets/Scenes/SampleScene.unity
    guid: 2cda990e2423bbf4892e6590ba056729
  - enabled: 1
    path: Assets/Scenes/Level 2.unity
    guid: f01c7f5013c9e624d94f9c6542776933
  - enabled: 1
    path: Assets/Scenes/Level 3.unity
    guid: ea498e10a7845234cacc2bef6f20dcdd
  - enabled: 1
    path: Assets/Scenes/Level 4.unity
    guid: a5738113ed604d0449c68b5b2748a324
  - enabled: 1
    path: Assets/Scenes/Level 5.unity
    guid: 189199d509e7c8e4daeaad16a049e3bc
  - enabled: 1
    path: Assets/Scenes/Level 6.unity
    guid: 88e4d32ba2366824384e82b315688540
  m_configObjects: {}
